id,"Codice Fiscale",username,password,email,nome,cognome,titoli,"data di nascita",telefono,cellulare,professione,note,foto,stato
17,FRNFRZ49R05G478M,fabrizio.franco,***********,franco051049@alice.it,FABRIZIO,FRANCO,,05/10/1949,"075 5005367","347 2944338",PENSIONATO,,,Iscritto,
18,MSCPLG48E09G224F,pierluigi.meschini,***********,gigimeschini48@gmail.com,PIERLUIGI,MESCHINI,,09/05/1948,"075 5288467","340 4903894",PENSIONATO,,,Iscritto,
14,BLLNDR66M30E975K,andrea.bellucci,***********,a.bellucci@inail.it,ANDREA,BELLUCCI,,30/08/1966,"075 5179065","335 5284478","DIP. INAIL",,,Iscritto,
15,BNCNCL73H10E783S,nicola.biancucci,***********,nicola.biancucci@gmail.com,NICOLA,BIANCUCCI,,10/06/1973,"392 0736206",,"Funzionario Assemblea legislativa regionale",,,Iscritto,
16,CLSFNC49M12G482V,franco.calistri,***********,francocalistri@libero.it,FRANCO,CALISTRI,,12/08/1949,"075 397055","347 5751347",PENSIONATO,,,Iscritto,
19,PRCNGL40A01C845I,angelo.pericolini,***********,pericolini.angelo@gmail.com,ANGELO,PERICOLINI,,01/01/1940,"075 5722815","338 7648430",PENSIONATO,,,Iscritto,
22,RZZRRT48M20G478X,roberto.rizzo,***********,r-rizzo@libero.it,ROBERTO,RIZZO,,20/08/1948,"347 4724990",,PENSIONATO,,,Iscritto,
